%YAML 1.1
%TAG !u! tag:unity3d.com,2011:
--- !u!114 &11400000
MonoBehaviour:
  m_ObjectHideFlags: 0
  m_CorrespondingSourceObject: {fileID: 0}
  m_PrefabInstance: {fileID: 0}
  m_PrefabAsset: {fileID: 0}
  m_GameObject: {fileID: 0}
  m_Enabled: 1
  m_EditorHideFlags: 0
  m_Script: {fileID: 11500000, guid: b926c29b963afab4d8da158e388e885b, type: 3}
  m_Name: ColliderIsometric
  m_EditorClassIdentifier: 
  m_DefaultSprite: {fileID: 21300000, guid: 1b11ec736f8996c4081bf3e8f3d3da5f, type: 3}
  m_DefaultGameObject: {fileID: 0}
  m_DefaultColliderType: 1
  m_TilingRules:
  - m_Neighbors: 0000000001000000000000000100000001000000000000000100000000000000
    m_Sprites:
    - {fileID: 21300000, guid: b4b8a0e2eced48648aba500de8890dbf, type: 3}
    m_GameObject: {fileID: 0}
    m_AnimationSpeed: 1
    m_PerlinScale: 0.5
    m_RuleTransform: 1
    m_Output: 0
    m_ColliderType: 1
    m_RandomTransform: 0
