%YAML 1.1
%TAG !u! tag:unity3d.com,2011:
--- !u!1 &8835988269326039498
GameObject:
  m_ObjectHideFlags: 0
  m_CorrespondingSourceObject: {fileID: 0}
  m_PrefabInstance: {fileID: 0}
  m_PrefabAsset: {fileID: 0}
  serializedVersion: 6
  m_Component:
  - component: {fileID: 8835988269326039500}
  - component: {fileID: 8835988269326039499}
  m_Layer: 0
  m_Name: PoolSys
  m_TagString: Untagged
  m_Icon: {fileID: 0}
  m_NavMeshLayer: 0
  m_StaticEditorFlags: 0
  m_IsActive: 1
--- !u!4 &8835988269326039500
Transform:
  m_ObjectHideFlags: 0
  m_CorrespondingSourceObject: {fileID: 0}
  m_PrefabInstance: {fileID: 0}
  m_PrefabAsset: {fileID: 0}
  m_GameObject: {fileID: 8835988269326039498}
  m_LocalRotation: {x: 0, y: 0, z: 0, w: 1}
  m_LocalPosition: {x: -4.570023, y: -1.6998034, z: -13.910414}
  m_LocalScale: {x: 1, y: 1, z: 1}
  m_Children: []
  m_Father: {fileID: 0}
  m_RootOrder: 0
  m_LocalEulerAnglesHint: {x: 0, y: 0, z: 0}
--- !u!114 &8835988269326039499
MonoBehaviour:
  m_ObjectHideFlags: 0
  m_CorrespondingSourceObject: {fileID: 0}
  m_PrefabInstance: {fileID: 0}
  m_PrefabAsset: {fileID: 0}
  m_GameObject: {fileID: 8835988269326039498}
  m_Enabled: 1
  m_EditorHideFlags: 0
  m_Script: {fileID: 11500000, guid: 33d58d8d2aed1f44aaeeebd4b176493b, type: 3}
  m_Name: 
  m_EditorClassIdentifier: 
  poolObj:
  - {fileID: -3713428170325508929, guid: 2190dbd91d385f14aafc8fe01b598236, type: 3}
  - {fileID: 2992373266033078664, guid: 3356996e8e7655247ab3c2f4341d4539, type: 3}
